{
  "phonghoc": {
    "rows": [{
      "key": "kienco",
      "name": "Phòng học kiên cố"
    }, {
      "key": "bankienco",
      "name": "Phòng học bán kiên cố"
    }, {
      "key": "tam",
      "name": "Phòng học tạm"
    }]
  },
  "lop_mn": {
    "rows": [{
      "key": "3-12thangtuoi",
      "name": "Số nhóm trẻ từ 3 đến 12 tháng tuổi"
    }, {
      "key": "13-24thangtuoi",
      "name": "Số nhóm trẻ từ 13 đến 24 tháng tuổi"
    }, {
      "key": "25-36thangtuoi",
      "name": "Số nhóm trẻ từ 25 đến 36 tháng tuổi"
    }, {
      "key": "3-4tuoi",
      "name": "Số lớp mẫu giáo từ 3 đến 4 tuổi"
    }, {
      "key": "4-5tuoi",
      "name": "Số lớp mẫu giáo từ 4 đến 5 tuổi"
    }, {
      "key": "5-6tuoi",
      "name": "Số lớp mẫu giáo từ 5 đến 6 tuổi"
    }, {
      "key": "lopghep3-4tuoi",
      "name": "Số lớp ghép 3 + 4 tuổi"
    }, {
      "key": "lopghep3-5tuoi",
      "name": "Số lớp ghép 3 + 5 tuổi"
    }, {
      "key": "lopghep3-4-5tuoi",
      "name": "Số lớp ghép 3 + 4 + 5 tuổi"
    }, {
      "key": "lopghep4-5tuoi",
      "name": "Số lớp ghép 4 + 5 tuổi"
    }]
  },
  "lop_th": {
    "rows": [{
      "key": "lop1",
      "name": "Khối lớp 1"
    }, {
      "key": "lop2",
      "name": "Khối lớp 2"
    }, {
      "key": "lop3",
      "name": "Khối lớp 3"
    }, {
      "key": "lop4",
      "name": "Khối lớp 4"
    }, {
      "key": "lop5",
      "name": "Khối lớp 5"
    }]
  },
  "lop_thcs": {
    "rows": [{
      "key": "lop6",
      "name": "Khối lớp 6"
    }, {
      "key": "lop7",
      "name": "Khối lớp 7"
    }, {
      "key": "lop8",
      "name": "Khối lớp 8"
    }, {
      "key": "lop9",
      "name": "Khối lớp 9"
    }]
  },
  "lop_thpt": {
    "rows": [{
      "key": "lop10",
      "name": "Khối lớp 10"
    }, {
      "key": "lop11",
      "name": "Khối lớp 11"
    }, {
      "key": "lop12",
      "name": "Khối lớp 12"
    }]
  },
  "lop_lc12": {
    "rows": [{
      "key": "lop1",
      "name": "Khối lớp 1"
    }, {
      "key": "lop2",
      "name": "Khối lớp 2"
    }, {
      "key": "lop3",
      "name": "Khối lớp 3"
    }, {
      "key": "lop4",
      "name": "Khối lớp 4"
    }, {
      "key": "lop5",
      "name": "Khối lớp 5"
    }, {
      "key": "lop6",
      "name": "Khối lớp 6"
    }, {
      "key": "lop7",
      "name": "Khối lớp 7"
    }, {
      "key": "lop8",
      "name": "Khối lớp 8"
    }, {
      "key": "lop9",
      "name": "Khối lớp 9"
    }]
  },
  "lop_lc23": {
    "rows": [{
      "key": "lop6",
      "name": "Khối lớp 6"
    }, {
      "key": "lop7",
      "name": "Khối lớp 7"
    }, {
      "key": "lop8",
      "name": "Khối lớp 8"
    }, {
      "key": "lop9",
      "name": "Khối lớp 9"
    }, {
      "key": "lop10",
      "name": "Khối lớp 10"
    }, {
      "key": "lop11",
      "name": "Khối lớp 11"
    }, {
      "key": "lop12",
      "name": "Khối lớp 12"
    }]
  },
  "lop_pt_dtnt": {
    "rows": [{
      "key": "lop1",
      "name": "Khối lớp 1"
    }, {
      "key": "lop2",
      "name": "Khối lớp 2"
    }, {
      "key": "lop3",
      "name": "Khối lớp 3"
    }, {
      "key": "lop4",
      "name": "Khối lớp 4"
    }, {
      "key": "lop5",
      "name": "Khối lớp 5"
    }, {
      "key": "lop6",
      "name": "Khối lớp 6"
    }, {
      "key": "lop7",
      "name": "Khối lớp 7"
    }, {
      "key": "lop8",
      "name": "Khối lớp 8"
    }, {
      "key": "lop9",
      "name": "Khối lớp 9"
    }, {
      "key": "lop10",
      "name": "Khối lớp 10"
    }, {
      "key": "lop11",
      "name": "Khối lớp 11"
    }, {
      "key": "lop12",
      "name": "Khối lớp 12"
    }]
  },
  "lop_gdtx": {
    "rows": [{
      "key": "lop1",
      "name": "Khối lớp 1"
    }, {
      "key": "lop2",
      "name": "Khối lớp 2"
    }, {
      "key": "lop3",
      "name": "Khối lớp 3"
    }, {
      "key": "lop4",
      "name": "Khối lớp 4"
    }, {
      "key": "lop5",
      "name": "Khối lớp 5"
    }, {
      "key": "lop6",
      "name": "Khối lớp 6"
    }, {
      "key": "lop7",
      "name": "Khối lớp 7"
    }, {
      "key": "lop8",
      "name": "Khối lớp 8"
    }, {
      "key": "lop9",
      "name": "Khối lớp 9"
    }, {
      "key": "lop10",
      "name": "Khối lớp 10"
    }, {
      "key": "lop11",
      "name": "Khối lớp 11"
    }, {
      "key": "lop12",
      "name": "Khối lớp 12"
    }]
  },
  "canboquanly_hientai": {
    "rows": [{
      "key": "hieutruong",
      "name": "Hiệu trưởng"
    }, {
      "key": "phohieutruong",
      "name": "Phó hiệu trưởng"
    }, {
      "key": "giaovien",
      "name": "Giáo viên"
    }, {
      "key": "nhanvien",
      "name": "Nhân viên"
    }],
    "columns": [{
      "key": "nu",
      "name": "Nữ"
    }, {
      "key": "Dantoc",
      "name": "Dân tộc"
    }, {
      "key": "datchuan",
      "name": "Đạt chuẩn",
      "group": "Trình độ đào tạo"
    }, {
      "key": "trenchuan",
      "name": "Trên chuẩn",
      "group": "Trình độ đào tạo"
    }, {
      "key": "chuadatchuan",
      "name": "Chưa đạt chuẩn",
      "group": "Trình độ đào tạo"
    }]
  },
  "canboquanly_namhoc": {
    "rows": [{
      "key": "tongso",
      "name": "Tổng số giáo viên"
    }, {
      "key": "gioicaphuyen",
      "name": "Tổng số GV dạy giỏi cấp huyện"
    }, {
      "key": "gioicaptinh",
      "name": "Tổng số GV dạy giỏi cấp tỉnh"
    }]
  },
  "hocsinh_mn": {
    "rows": [{
      "key": "3-12thangtuoi",
      "name": "Trẻ từ 3 đến 12 tháng tuổi",
      "group": "Tổng số"
    }, {
      "key": "13-24thangtuoi",
      "name": "Trẻ từ 13 đến 24 tháng tuổi",
      "group": "Tổng số"
    }, {
      "key": "25-36thangtuoi",
      "name": "Trẻ từ 25 đến 36 tháng tuổi",
      "group": "Tổng số"
    }, {
      "key": "3-4tuoi",
      "name": "Trẻ từ 3 đến 4 tuổi",
      "group": "Tổng số"
    }, {
      "key": "4-5tuoi",
      "name": "Trẻ từ 4 đến 5 tuổi",
      "group": "Tổng số"
    }, {
      "key": "5-6tuoi",
      "name": "Trẻ từ 5 đến 6 tuổi",
      "group": "Tổng số"
    }, {
      "key": "nu",
      "name": "Nữ"
    }, {
      "key": "dantoc",
      "name": "Dân tộc"
    }, {
      "key": "doituongchinhsach",
      "name": "Đối tượng chính sách"
    }, {
      "key": "khuyetat",
      "name": "Khuyết tật"
    }, {
      "key": "tuyenmoi",
      "name": "Tuyển mới"
    }, {
      "key": "2buoi",
      "name": "Học 2 buổi trên ngày"
    }, {
      "key": "bantru",
      "name": "Bán trú"
    }, {
      "key": "tylehocsinhlop",
      "name": "Tỷ lệ trẻ/lớp"
    }, {
      "key": "tylehocsinhnhom",
      "name": "Tỷ lệ trẻ/nhóm"
    }]
  },
  "hocsinh_th": {
    "rows": [{
      "key": "lop1",
      "name": "Khối lớp 1",
      "group": "Tổng số"
    }, {
      "key": "lop2",
      "name": "Khối lớp 2",
      "group": "Tổng số"
    }, {
      "key": "lop3",
      "name": "Khối lớp 3",
      "group": "Tổng số"
    }, {
      "key": "lop4",
      "name": "Khối lớp 4",
      "group": "Tổng số"
    }, {
      "key": "lop5",
      "name": "Khối lớp 5",
      "group": "Tổng số"
    }, {
      "key": "nu",
      "name": "Nữ"
    }, {
      "key": "dantoc",
      "name": "Dân tộc"
    }, {
      "key": "doituongchinhsach",
      "name": "Đối tượng chính sách"
    }, {
      "key": "khuyetat",
      "name": "Khuyết tật"
    }, {
      "key": "tuyenmoi",
      "name": "Tuyển mới"
    }, {
      "key": "luuban",
      "name": "Lưu ban"
    }, {
      "key": "bohoc",
      "name": "Bỏ học"
    }, {
      "key": "2buoi",
      "name": "Học 2 buổi trên ngày"
    }, {
      "key": "bantru",
      "name": "Bán trú"
    }, {
      "key": "noitru",
      "name": "Nội trú"
    }, {
      "key": "tylehocsinhlop",
      "name": "Tỷ lệ học sinh/lớp"
    }, {
      "key": "tyledungdotuoi_nu",
      "name": "Nữ",
      "group": "Tỷ lệ đi học đúng độ tuổi"
    }, {
      "key": "tyledungdotuoi_dantoc",
      "name": "Dân tộc",
      "group": "Tỷ lệ đi học đúng độ tuổi"
    }, {
      "key": "totnghiep_nu",
      "name": "Nữ",
      "group": "Tổng số học sinh hoàn thành chương trình cấp học/tốt nghiệp"
    }, {
      "key": "totnghiep_dantoc",
      "name": "Dân tộc",
      "group": "Tổng số học sinh hoàn thành chương trình cấp học/tốt nghiệp"
    }, {
      "key": "hocsinhgioi_tinh",
      "name": "Học sinh giỏi cấp tỉnh"
    }, {
      "key": "hocsinhgioi_quocgia",
      "name": "Học sinh giỏi cấp quốc gia"
    }, {
      "key": "tylechuyencap",
      "name": "Tỷ lệ chuyển cấp"
    }]
  },
  "hocsinh_thcs": {
    "rows": [{
      "key": "lop6",
      "name": "Khối lớp 6",
      "group": "Tổng số"
    }, {
      "key": "lop7",
      "name": "Khối lớp 7",
      "group": "Tổng số"
    }, {
      "key": "lop8",
      "name": "Khối lớp 8",
      "group": "Tổng số"
    }, {
      "key": "lop9",
      "name": "Khối lớp 9",
      "group": "Tổng số"
    }, {
      "key": "nu",
      "name": "Nữ"
    }, {
      "key": "dantoc",
      "name": "Dân tộc"
    }, {
      "key": "doituongchinhsach",
      "name": "Đối tượng chính sách"
    }, {
      "key": "khuyetat",
      "name": "Khuyết tật"
    }, {
      "key": "tuyenmoi",
      "name": "Tuyển mới"
    }, {
      "key": "luuban",
      "name": "Lưu ban"
    }, {
      "key": "bohoc",
      "name": "Bỏ học"
    }, {
      "key": "2buoi",
      "name": "Học 2 buổi trên ngày"
    }, {
      "key": "bantru",
      "name": "Bán trú"
    }, {
      "key": "noitru",
      "name": "Nội trú"
    }, {
      "key": "tylehocsinhlop",
      "name": "Tỷ lệ học sinh/lớp"
    }, {
      "key": "tyledungdotuoi_nu",
      "name": "Nữ",
      "group": "Tỷ lệ đi học đúng độ tuổi"
    }, {
      "key": "tyledungdotuoi_dantoc",
      "name": "Dân tộc",
      "group": "Tỷ lệ đi học đúng độ tuổi"
    }, {
      "key": "totnghiep_nu",
      "name": "Nữ",
      "group": "Tổng số học sinh hoàn thành chương trình cấp học/tốt nghiệp"
    }, {
      "key": "totnghiep_dantoc",
      "name": "Dân tộc",
      "group": "Tổng số học sinh hoàn thành chương trình cấp học/tốt nghiệp"
    }, {
      "key": "hocsinhgioi_tinh",
      "name": "Học sinh giỏi cấp tỉnh"
    }, {
      "key": "hocsinhgioi_quocgia",
      "name": "Học sinh giỏi cấp quốc gia"
    }, {
      "key": "tylechuyencap",
      "name": "Tỷ lệ chuyển cấp"
    }]
  },
  "hocsinh_thpt": {
    "rows": [{
      "key": "lop10",
      "name": "Khối lớp 10",
      "group": "Tổng số"
    }, {
      "key": "lop11",
      "name": "Khối lớp 11",
      "group": "Tổng số"
    }, {
      "key": "lop12",
      "name": "Khối lớp 12",
      "group": "Tổng số"
    }, {
      "key": "nu",
      "name": "Nữ"
    }, {
      "key": "dantoc",
      "name": "Dân tộc"
    }, {
      "key": "doituongchinhsach",
      "name": "Đối tượng chính sách"
    }, {
      "key": "khuyetat",
      "name": "Khuyết tật"
    }, {
      "key": "tuyenmoi",
      "name": "Tuyển mới"
    }, {
      "key": "luuban",
      "name": "Lưu ban"
    }, {
      "key": "bohoc",
      "name": "Bỏ học"
    }, {
      "key": "2buoi",
      "name": "Học 2 buổi trên ngày"
    }, {
      "key": "bantru",
      "name": "Bán trú"
    }, {
      "key": "noitru",
      "name": "Nội trú"
    }, {
      "key": "tylehocsinhlop",
      "name": "Tỷ lệ học sinh/lớp"
    }, {
      "key": "tyledungdotuoi_nu",
      "name": "Nữ",
      "group": "Tỷ lệ đi học đúng độ tuổi"
    }, {
      "key": "tyledungdotuoi_dantoc",
      "name": "Dân tộc",
      "group": "Tỷ lệ đi học đúng độ tuổi"
    }, {
      "key": "totnghiep_nu",
      "name": "Nữ",
      "group": "Tổng số học sinh hoàn thành chương trình cấp học/tốt nghiệp"
    }, {
      "key": "totnghiep_dantoc",
      "name": "Dân tộc",
      "group": "Tổng số học sinh hoàn thành chương trình cấp học/tốt nghiệp"
    }, {
      "key": "hocsinhgioi_tinh",
      "name": "Học sinh giỏi cấp tỉnh"
    }, {
      "key": "hocsinhgioi_quocgia",
      "name": "Học sinh giỏi cấp quốc gia"
    }, {
      "key": "tylechuyencap",
      "name": "Tỷ lệ chuyển cấp (hoặc thi đỗ vào các trường đại học, cao đẳng)"
    }]
  },
  "hocsinh_lc12": {
    "rows": [{
      "key": "lop1",
      "name": "Khối lớp 1",
      "group": "Tổng số"
    }, {
      "key": "lop2",
      "name": "Khối lớp 2",
      "group": "Tổng số"
    }, {
      "key": "lop3",
      "name": "Khối lớp 3",
      "group": "Tổng số"
    }, {
      "key": "lop4",
      "name": "Khối lớp 4",
      "group": "Tổng số"
    }, {
      "key": "lop5",
      "name": "Khối lớp 5",
      "group": "Tổng số"
    }, {
      "key": "lop6",
      "name": "Khối lớp 6",
      "group": "Tổng số"
    }, {
      "key": "lop7",
      "name": "Khối lớp 7",
      "group": "Tổng số"
    }, {
      "key": "lop8",
      "name": "Khối lớp 8",
      "group": "Tổng số"
    }, {
      "key": "lop9",
      "name": "Khối lớp 9",
      "group": "Tổng số"
    }, {
      "key": "nu",
      "name": "Nữ"
    }, {
      "key": "dantoc",
      "name": "Dân tộc"
    }, {
      "key": "doituongchinhsach",
      "name": "Đối tượng chính sách"
    }, {
      "key": "khuyetat",
      "name": "Khuyết tật"
    }, {
      "key": "tuyenmoi",
      "name": "Tuyển mới"
    }, {
      "key": "luuban",
      "name": "Lưu ban"
    }, {
      "key": "bohoc",
      "name": "Bỏ học"
    }, {
      "key": "2buoi",
      "name": "Học 2 buổi trên ngày"
    }, {
      "key": "bantru",
      "name": "Bán trú"
    }, {
      "key": "noitru",
      "name": "Nội trú"
    }, {
      "key": "tylehocsinhlop",
      "name": "Tỷ lệ học sinh/lớp"
    }, {
      "key": "tyledungdotuoi_nu",
      "name": "Nữ",
      "group": "Tỷ lệ đi học đúng độ tuổi"
    }, {
      "key": "tyledungdotuoi_dantoc",
      "name": "Dân tộc",
      "group": "Tỷ lệ đi học đúng độ tuổi"
    }, {
      "key": "totnghiep_nu",
      "name": "Nữ",
      "group": "Tổng số học sinh hoàn thành chương trình cấp học/tốt nghiệp"
    }, {
      "key": "totnghiep_dantoc",
      "name": "Dân tộc",
      "group": "Tổng số học sinh hoàn thành chương trình cấp học/tốt nghiệp"
    }, {
      "key": "hocsinhgioi_tinh",
      "name": "Học sinh giỏi cấp tỉnh"
    }, {
      "key": "hocsinhgioi_quocgia",
      "name": "Học sinh giỏi cấp quốc gia"
    }, {
      "key": "tylechuyencap",
      "name": "Tỷ lệ chuyển cấp"
    }]
  },
  "hocsinh_lc23": {
    "rows": [{
      "key": "lop6",
      "name": "Khối lớp 6",
      "group": "Tổng số"
    }, {
      "key": "lop7",
      "name": "Khối lớp 7",
      "group": "Tổng số"
    }, {
      "key": "lop8",
      "name": "Khối lớp 8",
      "group": "Tổng số"
    }, {
      "key": "lop9",
      "name": "Khối lớp 9",
      "group": "Tổng số"
    }, {
      "key": "lop10",
      "name": "Khối lớp 10",
      "group": "Tổng số"
    }, {
      "key": "lop11",
      "name": "Khối lớp 11",
      "group": "Tổng số"
    }, {
      "key": "lop12",
      "name": "Khối lớp 12",
      "group": "Tổng số"
    }, {
      "key": "nu",
      "name": "Nữ"
    }, {
      "key": "dantoc",
      "name": "Dân tộc"
    }, {
      "key": "doituongchinhsach",
      "name": "Đối tượng chính sách"
    }, {
      "key": "khuyetat",
      "name": "Khuyết tật"
    }, {
      "key": "tuyenmoi",
      "name": "Tuyển mới"
    }, {
      "key": "luuban",
      "name": "Lưu ban"
    }, {
      "key": "bohoc",
      "name": "Bỏ học"
    }, {
      "key": "2buoi",
      "name": "Học 2 buổi trên ngày"
    }, {
      "key": "bantru",
      "name": "Bán trú"
    }, {
      "key": "noitru",
      "name": "Nội trú"
    }, {
      "key": "tylehocsinhlop",
      "name": "Tỷ lệ học sinh/lớp"
    }, {
      "key": "tyledungdotuoi_nu",
      "name": "Nữ",
      "group": "Tỷ lệ đi học đúng độ tuổi"
    }, {
      "key": "tyledungdotuoi_dantoc",
      "name": "Dân tộc",
      "group": "Tỷ lệ đi học đúng độ tuổi"
    }, {
      "key": "totnghiep_nu",
      "name": "Nữ",
      "group": "Tổng số học sinh hoàn thành chương trình cấp học/tốt nghiệp"
    }, {
      "key": "totnghiep_dantoc",
      "name": "Dân tộc",
      "group": "Tổng số học sinh hoàn thành chương trình cấp học/tốt nghiệp"
    }, {
      "key": "hocsinhgioi_tinh",
      "name": "Học sinh giỏi cấp tỉnh"
    }, {
      "key": "hocsinhgioi_quocgia",
      "name": "Học sinh giỏi cấp quốc gia"
    }, {
      "key": "tylechuyencap",
      "name": "Tỷ lệ chuyển cấp (hoặc thi đỗ vào các trường đại học, cao đẳng)"
    }]
  },
  "hocsinh_pt_dtnt": {
    "rows": [{
      "key": "lop1",
      "name": "Khối lớp 1",
      "group": "Tổng số"
    }, {
      "key": "lop2",
      "name": "Khối lớp 2",
      "group": "Tổng số"
    }, {
      "key": "lop3",
      "name": "Khối lớp 3",
      "group": "Tổng số"
    }, {
      "key": "lop4",
      "name": "Khối lớp 4",
      "group": "Tổng số"
    }, {
      "key": "lop5",
      "name": "Khối lớp 5",
      "group": "Tổng số"
    }, {
      "key": "lop6",
      "name": "Khối lớp 6",
      "group": "Tổng số"
    }, {
      "key": "lop7",
      "name": "Khối lớp 7",
      "group": "Tổng số"
    }, {
      "key": "lop8",
      "name": "Khối lớp 8",
      "group": "Tổng số"
    }, {
      "key": "lop9",
      "name": "Khối lớp 9",
      "group": "Tổng số"
    }, {
      "key": "lop10",
      "name": "Khối lớp 10",
      "group": "Tổng số"
    }, {
      "key": "lop11",
      "name": "Khối lớp 11",
      "group": "Tổng số"
    }, {
      "key": "lop12",
      "name": "Khối lớp 12",
      "group": "Tổng số"
    }, {
      "key": "nu",
      "name": "Nữ"
    }, {
      "key": "dantoc",
      "name": "Dân tộc"
    }, {
      "key": "doituongchinhsach",
      "name": "Đối tượng chính sách"
    }, {
      "key": "khuyetat",
      "name": "Khuyết tật"
    }, {
      "key": "tuyenmoi",
      "name": "Tuyển mới"
    }, {
      "key": "luuban",
      "name": "Lưu ban"
    }, {
      "key": "bohoc",
      "name": "Bỏ học"
    }, {
      "key": "2buoi",
      "name": "Học 2 buổi trên ngày"
    }, {
      "key": "bantru",
      "name": "Bán trú"
    }, {
      "key": "noitru",
      "name": "Nội trú"
    }, {
      "key": "tylehocsinhlop",
      "name": "Tỷ lệ học sinh/lớp"
    }, {
      "key": "tyledungdotuoi_nu",
      "name": "Nữ",
      "group": "Tỷ lệ đi học đúng độ tuổi"
    }, {
      "key": "tyledungdotuoi_dantoc",
      "name": "Dân tộc",
      "group": "Tỷ lệ đi học đúng độ tuổi"
    }, {
      "key": "totnghiep_nu",
      "name": "Nữ",
      "group": "Tổng số học sinh hoàn thành chương trình cấp học/tốt nghiệp"
    }, {
      "key": "totnghiep_dantoc",
      "name": "Dân tộc",
      "group": "Tổng số học sinh hoàn thành chương trình cấp học/tốt nghiệp"
    }, {
      "key": "hocsinhgioi_tinh",
      "name": "Học sinh giỏi cấp tỉnh"
    }, {
      "key": "hocsinhgioi_quocgia",
      "name": "Học sinh giỏi cấp quốc gia"
    }, {
      "key": "tylechuyencap",
      "name": "Tỷ lệ chuyển cấp (hoặc thi đỗ vào các trường đại học, cao đẳng)"
    }]
  },
  "hocsinh_gdtx": {
    "rows": [{
      "key": "lop1",
      "name": "Khối lớp 1",
      "group": "Tổng số"
    }, {
      "key": "lop2",
      "name": "Khối lớp 2",
      "group": "Tổng số"
    }, {
      "key": "lop3",
      "name": "Khối lớp 3",
      "group": "Tổng số"
    }, {
      "key": "lop4",
      "name": "Khối lớp 4",
      "group": "Tổng số"
    }, {
      "key": "lop5",
      "name": "Khối lớp 5",
      "group": "Tổng số"
    }, {
      "key": "lop6",
      "name": "Khối lớp 6",
      "group": "Tổng số"
    }, {
      "key": "lop7",
      "name": "Khối lớp 7",
      "group": "Tổng số"
    }, {
      "key": "lop8",
      "name": "Khối lớp 8",
      "group": "Tổng số"
    }, {
      "key": "lop9",
      "name": "Khối lớp 9",
      "group": "Tổng số"
    }, {
      "key": "lop10",
      "name": "Khối lớp 10",
      "group": "Tổng số"
    }, {
      "key": "lop11",
      "name": "Khối lớp 11",
      "group": "Tổng số"
    }, {
      "key": "lop12",
      "name": "Khối lớp 12",
      "group": "Tổng số"
    }, {
      "key": "nu",
      "name": "Nữ"
    }, {
      "key": "dantoc",
      "name": "Dân tộc"
    }, {
      "key": "doituongchinhsach",
      "name": "Đối tượng chính sách"
    }, {
      "key": "khuyetat",
      "name": "Khuyết tật"
    }, {
      "key": "tuyenmoi",
      "name": "Tuyển mới"
    }, {
      "key": "luuban",
      "name": "Lưu ban"
    }, {
      "key": "bohoc",
      "name": "Bỏ học"
    }, {
      "key": "2buoi",
      "name": "Học 2 buổi trên ngày"
    }, {
      "key": "bantru",
      "name": "Bán trú"
    }, {
      "key": "noitru",
      "name": "Nội trú"
    }, {
      "key": "tylehocsinhlop",
      "name": "Tỷ lệ học sinh/lớp"
    }, {
      "key": "tyledungdotuoi_nu",
      "name": "Nữ",
      "group": "Tỷ lệ đi học đúng độ tuổi"
    }, {
      "key": "tyledungdotuoi_dantoc",
      "name": "Dân tộc",
      "group": "Tỷ lệ đi học đúng độ tuổi"
    }, {
      "key": "totnghiep_nu",
      "name": "Nữ",
      "group": "Tổng số học sinh hoàn thành chương trình cấp học/tốt nghiệp"
    }, {
      "key": "totnghiep_dantoc",
      "name": "Dân tộc",
      "group": "Tổng số học sinh hoàn thành chương trình cấp học/tốt nghiệp"
    }, {
      "key": "hocsinhgioi_tinh",
      "name": "Học sinh giỏi cấp tỉnh"
    }, {
      "key": "hocsinhgioi_quocgia",
      "name": "Học sinh giỏi cấp quốc gia"
    }, {
      "key": "tylechuyencap",
      "name": "Tỷ lệ chuyển cấp (hoặc thi đỗ vào các trường đại học, cao đẳng)"
    }]
  }
}